…
# La de abril es la id = 208
elec_id <- 208
```

### Resúmenes por provincia

```{r resultados-eleccion}
# Totales provinciales de la elección 208
resumenes <- get_totales_territorio_eleccion(
  eleccion_id = elec_id,
  tipo_territorio = "provincia",
  all_pages = TRUE
)
resumenes
#> # A tibble: 52 × 11
#>       id eleccion_id territorio_id censo_ine participacion_1 participacion_2
#>    <int>       <int>         <int>     <int>           <int>           <int>
#>  1  1001         208            20    402054          261543          290178
#>  2  1002         208            21    816291          531099          574123
#> # ℹ 50 more rows
#> # ℹ 5 more variables: participacion_3 <int>, votos_validos <int>,
#> #   votos_nulos <int>, votos_blanco <int>, nrepresentantes <int>
```
…
```{r resultado-completo}
# Resultado completo de Almería (territorio_id = 20) en la elección 208
resultado <- get_resultado_completo(eleccion_id = 208, territorio_id = 20)

# Totales territorio: censo, participación, abstención
resultado$totales_territorio
#> # A tibble: 1 × 11
#>      id eleccion_id territorio_id censo_ine participacion_1 participacion_2
#>   <int>       <int>         <int>     <int>           <int>           <int>
#> 1  1001         208            20    402054          261543          290178
#> # ℹ 5 more variables: ...

# Votos por partido (con datos del partido aplanados)
resultado$votos_partido
#> # A tibble: 22 × 7
#>       id eleccion_id territorio_id partido_id votos representantes partido_siglas
#>    <int>       <int>         <int>      <int> <int>          <int> <chr>
#>  1 50001         208            20       9451 89432              3 P.S.O.E.
#>  2 50002         208            20       3421 72105              2 PP
#> # ℹ 20 more rows
```
…
