…
Cada territorio contiene códigos jerárquicos completos (`codigo_ccaa`,
`codigo_provincia`, `codigo_municipio`, etc.) y un `parent_id` que
permite navegar hacia arriba en la jerarquía.

### Listar territorios

[`get_territorios()`](../reference/get_territorios.md) devuelve un
listado paginado que puedes filtrar por tipo, códigos jerárquicos y
nombre:

``` r
# Todas las comunidades autónomas
ccaas <- get_territorios(tipo = "ccaa", all_pages = TRUE)
ccaas
#> # A tibble: 19 × 5
#>       id tipo  nombre             codigo_completo parent_id
#>    <int> <chr> <chr>              <chr>               <int>
#>  1     1 ccaa  Andalucia          0100000000000          NA
#>  2     2 ccaa  Aragon             0200000000000          NA
#>  3     3 ccaa  Asturias           0300000000000          NA
#> # ℹ 16 more rows
```

``` r
# Provincias de Andalucía (codigo_ccaa = "01")
provincias_andalucia <- get_territorios(
  tipo = "provincia",
  codigo_ccaa = "01",
  all_pages = TRUE
)
provincias_andalucia
#> # A tibble: 8 × 5
#>       id tipo      nombre   codigo_completo parent_id
#>    <int> <chr>     <chr>    <chr>               <int>
#>  1    20 provincia Almeria  0104000000000           1
#>  2    21 provincia Cadiz    0111000000000           1
#>  3    22 provincia Cordoba  0114000000000           1
#> # ℹ 5 more rows
```

``` r
# Buscar por nombre (búsqueda parcial)
get_territorios(nombre = "madrid")
#> # A tibble: 50 × 5
#>       id tipo      nombre               codigo_completo parent_id
#>    <int> <chr>     <chr>                 <chr>               <int>
#>  1    13 ccaa      Madrid               1300000000000          NA
#>  2    50 provincia Madrid               1328000000000          13
#>  3   812 municipio Madrid               1328079000000          50
#> # ℹ 47 more rows
```
…
``` r
# Municipios de la provincia de Sevilla (id = 27)
municipios_sevilla <- get_territorio_hijos(27, all_pages = TRUE)
nrow(municipios_sevilla)
#> [1] 105
head(municipios_sevilla)
#> # A tibble: 6 × 5
#>      id tipo      nombre            codigo_completo parent_id
#>   <int> <chr>     <chr>             <chr>               <int>
#> 1  5401 municipio Aguadulce         0141001000000          27
#> 2  5402 municipio Alanis            0141002000000          27
#> 3  5403 municipio Albaida del Ala…  0141003000000          27
#> # ℹ 3 more rows
```
…
------------------------------------------------------------------------

## Partidos

### Buscar partidos

[`get_partidos()`](../reference/get_partidos.md) permite buscar partidos
por siglas, denominación o por su grupo de recode:

``` r
# Buscar partidos con siglas "PSOE"
get_partidos(siglas = "psoe")
#> # A tibble: 50 × 4
#>       id siglas              denominacion                      partido_recode_id
#>    <int> <chr>               <chr>                                         <int>
#>  1  9451 P.S.O.E.            PARTIDO SOCIALISTA OBRERO ESPAÑOL                80
#>  2  9452 P.S.O.E.-PROGRE…    PARTIDO SOCIALISTA OBRERO ESPAÑOL…               80
#>  3  9453 P.S.O.E.-P.S.C.     PARTIDO SOCIALISTA OBRERO ESPAÑOL…               80
#> # ℹ 47 more rows
```
…
Los partidos sin grupo de recode asignado tendrán
`partido_recode_id = NA` y las columnas `recode_*` también serán `NA`.

### Agrupaciones de partidos (recode)

Los partidos se agrupan en **familias** (recode) que permiten agregar
votos de partidos locales o coaliciones bajo un mismo paraguas. Por
ejemplo, las distintas candidaturas del PSOE en cada comunidad autónoma
se agrupan bajo el recode “PSOE”.

``` r
# Listar agrupaciones
get_partidos_recode()
#> # A tibble: 50 × 4
#>       id partido_recode    agrupacion color
#>    <int> <chr>             <chr>      <chr>
#>  1     1 AP/PP             AP/PP      #0068B2
#>  2     2 BNG               BNG        #76B3DD
#>  3     3 CC                CC         #FFD700
#> # ℹ 47 more rows
```
…
# Información del grupo
resultado$recode
#> # A tibble: 1 × 4
#>      id partido_recode agrupacion color
#>   <int> <chr>          <chr>      <chr>
#> 1    80 PSOE           PSOE       #E30613

# Partidos miembros
nrow(resultado$partidos)
#> [1] 342

head(resultado$partidos)
#> # A tibble: 6 × 4
#>      id siglas              denominacion                      partido_recode_id
#>   <int> <chr>               <chr>                                         <int>
#> 1  9451 P.S.O.E.            PARTIDO SOCIALISTA OBRERO ESPAÑOL                80
#> 2  9452 P.S.O.E.-PROGRE…    PARTIDO SOCIALISTA OBRERO ESPAÑOL…               80
#> 3  9453 P.S.O.E.-P.S.C.     PARTIDO SOCIALISTA OBRERO ESPAÑOL…               80
#> # ℹ 3 more rows
```
…
