Introducción a eleccionesdb • eleccionesdb
…
get_tipo_eleccion("G")
#> # A tibble: 1 × 2
#>   codigo descripcion
#>   <chr>  <chr>
#> 1 G      Congreso

Listar elecciones

get_elecciones() devuelve un listado paginado de
elecciones. Puedes filtrar por tipo, año, mes y ámbito:

# Todas las elecciones generales
get_elecciones(tipo_eleccion = "G")
#> # A tibble: 16 × 9
#>       id tipo_eleccion year  mes   dia   fecha      descripcion       ambito   slug
#>    <int> <chr>         <chr> <chr> <chr> <date>     <chr>             <chr>    <chr>
#>  1   208 G             2019  04    28    2019-04-28 Elecciones Gene…  Nacional elecc…
#>  2   226 G             2019  11    10    2019-11-10 Elecciones Gene…  Nacional elecc…
#> # ℹ 14 more rows
…
