…
## Resúmenes de participación CERA

[`get_cera_resumen()`](https://hmeleiro.github.io/eleccionesdb-r/reference/get_cera_resumen.md)
devuelve datos agregados de participación del voto exterior: censo,
participación, votos válidos, nulos, en blanco y abstenciones.

``` r
# Resúmenes CERA de todas las elecciones generales
cera_generales <- get_cera_resumen(
  tipo_eleccion = "G",
  all_pages = TRUE
)
cera_generales
#> # A tibble: 128 × 11
#>       id eleccion_id territorio_id censo_ine participacion_1 participacion_2
#>    <int>       <int>         <int>     <int>           <int>           <int>
#>  1 20001         208          5001     32456           12345           14567
#>  2 20002         208          5002     18234            7890            9012
#> # ℹ 126 more rows
#> # ℹ 5 more variables: participacion_3 <int>, votos_validos <int>,
#> #   votos_nulos <int>, votos_blanco <int>, nrepresentantes <int>
```
…
------------------------------------------------------------------------

## Votos por partido en el exterior

[`get_cera_votos()`](https://hmeleiro.github.io/eleccionesdb-r/reference/get_cera_votos.md)
devuelve el desglose de votos por partido en las circunscripciones CERA:

``` r
# Votos CERA de las generales de abril 2019
votos_cera <- get_cera_votos(
  eleccion_id = 208,
  all_pages = TRUE
)
votos_cera
#> # A tibble: 320 × 6
#>       id eleccion_id territorio_id partido_id votos representantes
#>    <int>       <int>         <int>      <int> <int>          <int>
#>  1 30001         208          5001       9451  4567              0
#>  2 30002         208          5001       3421  3210              0
#> # ℹ 318 more rows
```
…
